…
<img src="README_figs/README-unnamed-chunk-4-1.png" width="100%" style="display: block; margin: auto;" />
  
<img src="README_figs/README-unnamed-chunk-5-1.png" width="100%" style="display: block; margin: auto;" />


```
> # A tibble: 9,202 x 2
> # Groups:   GENDER [2]
>     PAGE GENDER
>    <int> <fct> 
>  1    18 MALE  
>  2    31 MALE  
>  3    31 MALE  
>  4    31 MALE  
>  5    31 MALE  
>  6    31 MALE  
>  7    34 MALE  
>  8    34 MALE  
>  9    34 MALE  
> 10    34 MALE  
> # … with 9,192 more rows
```

<img src="README_figs/README-unnamed-chunk-6-1.png" width="100%" style="display: block; margin: auto;" />

```
> [1] 57
```


```
> # A tibble: 9,202 x 3
> # Groups:   GENDER [2]
>    GENDER SALARY avg_salary
>    <fct>   <dbl>      <dbl>
>  1 MALE    1893.       473.
>  2 MALE     742.       473.
>  3 MALE     942.       473.
>  4 FEMALE   823.       469.
>  5 MALE     815.       473.
>  6 MALE    1900        473.
>  7 MALE     825        473.
>  8 MALE     947.       473.
>  9 FEMALE   828.       469.
> 10 MALE     634.       473.
> # … with 9,192 more rows
```
…
