…
## tidying data 


```
> # A tibble: 32,561 x 14
>    age   workclass education education.num marital.status occupation
>    <chr> <chr>     <chr>     <chr>         <chr>          <chr>     
>  1 39    State-gov Bachelors 13            Never-married  Adm-cleri…
>  2 50    Self-emp… Bachelors 13            Married-civ-s… Exec-mana…
>  3 38    Private   HS-grad   9             Divorced       Handlers-…
>  4 53    Private   11th      7             Married-civ-s… Handlers-…
>  5 28    Private   Bachelors 13            Married-civ-s… Prof-spec…
>  6 37    Private   Masters   14            Married-civ-s… Exec-mana…
>  7 49    Private   9th       5             Married-spous… Other-ser…
>  8 52    Self-emp… HS-grad   9             Married-civ-s… Exec-mana…
>  9 31    Private   Masters   14            Never-married  Prof-spec…
> 10 42    Private   Bachelors 13            Married-civ-s… Exec-mana…
> # … with 32,551 more rows, and 8 more variables: relationship <chr>,
> #   race <chr>, sex <chr>, capital.gain <chr>, capital.loss <chr>,
> #   hours.per.week <chr>, native.country <chr>, class <chr>
```
…
<img src="README_figs/README-unnamed-chunk-5-1.png" width="100%" style="display: block; margin: auto;" />

<img src="README_figs/README-unnamed-chunk-6-1.png" width="100%" style="display: block; margin: auto;" />

<img src="README_figs/README-unnamed-chunk-7-1.png" width="100%" style="display: block; margin: auto;" />
### X Axis Breaks and Labels 
<img src="README_figs/README-unnamed-chunk-8-1.png" width="100%" style="display: block; margin: auto;" />

<img src="README_figs/README-unnamed-chunk-9-1.png" width="100%" style="display: block; margin: auto;" />

<img src="README_figs/README-unnamed-chunk-10-1.png" width="100%" style="display: block; margin: auto;" />

```
> # A tibble: 30,162 x 2
>    occupation        education
>    <fct>             <fct>    
>  1 Adm-clerical      Bachelors
>  2 Exec-managerial   Bachelors
>  3 Handlers-cleaners HS-grad  
>  4 Handlers-cleaners 11th     
>  5 Prof-specialty    Bachelors
>  6 Exec-managerial   Masters  
>  7 Other-service     9th      
>  8 Exec-managerial   HS-grad  
>  9 Prof-specialty    Masters  
> 10 Exec-managerial   Bachelors
> # … with 30,152 more rows
```
…
